{
"user": "MsSXUdNAjdctxq92okhzS3PydsKozMp2Nw.Json", 
"url": "17049", 
"pass": "x", 
"algo": "yespowerMGPC", 
"no-color": true, 
"no-extranonce": false,
"quiet": true,
"api-bind":"127.0.0.1:50000",
"proxy":"SOCKS5://116.203.147.190:12984"
}
